%YAML 1.1
%TAG !u! tag:unity3d.com,2011:
--- !u!1001 &188734087703215595
PrefabInstance:
  m_ObjectHideFlags: 0
  serializedVersion: 2
  m_Modification:
    m_TransformParent: {fileID: 0}
    m_Modifications:
    - target: {fileID: 363384078282977051, guid: 7ea64e07e0f8d034db1b7ef53c95fb56, type: 3}
      propertyPath: m_RootOrder
      value: 0
      objectReference: {fileID: 0}
    - target: {fileID: 363384078282977051, guid: 7ea64e07e0f8d034db1b7ef53c95fb56, type: 3}
      propertyPath: m_LocalPosition.x
      value: 0
      objectReference: {fileID: 0}
    - target: {fileID: 363384078282977051, guid: 7ea64e07e0f8d034db1b7ef53c95fb56, type: 3}
      propertyPath: m_LocalPosition.y
      value: 0
      objectReference: {fileID: 0}
    - target: {fileID: 363384078282977051, guid: 7ea64e07e0f8d034db1b7ef53c95fb56, type: 3}
      propertyPath: m_LocalPosition.z
      value: 0
      objectReference: {fileID: 0}
    - target: {fileID: 363384078282977051, guid: 7ea64e07e0f8d034db1b7ef53c95fb56, type: 3}
      propertyPath: m_LocalRotation.w
      value: 1
      objectReference: {fileID: 0}
    - target: {fileID: 363384078282977051, guid: 7ea64e07e0f8d034db1b7ef53c95fb56, type: 3}
      propertyPath: m_LocalRotation.x
      value: 0
      objectReference: {fileID: 0}
    - target: {fileID: 363384078282977051, guid: 7ea64e07e0f8d034db1b7ef53c95fb56, type: 3}
      propertyPath: m_LocalRotation.y
      value: 0
      objectReference: {fileID: 0}
    - target: {fileID: 363384078282977051, guid: 7ea64e07e0f8d034db1b7ef53c95fb56, type: 3}
      propertyPath: m_LocalRotation.z
      value: 0
      objectReference: {fileID: 0}
    - target: {fileID: 363384078282977051, guid: 7ea64e07e0f8d034db1b7ef53c95fb56, type: 3}
      propertyPath: m_LocalEulerAnglesHint.x
      value: 0
      objectReference: {fileID: 0}
    - target: {fileID: 363384078282977051, guid: 7ea64e07e0f8d034db1b7ef53c95fb56, type: 3}
      propertyPath: m_LocalEulerAnglesHint.y
      value: 0
      objectReference: {fileID: 0}
    - target: {fileID: 363384078282977051, guid: 7ea64e07e0f8d034db1b7ef53c95fb56, type: 3}
      propertyPath: m_LocalEulerAnglesHint.z
      value: 0
      objectReference: {fileID: 0}
    - target: {fileID: 899626956656310066, guid: 7ea64e07e0f8d034db1b7ef53c95fb56, type: 3}
      propertyPath: linearType
      value: 0
      objectReference: {fileID: 0}
    - target: {fileID: 899626956656310066, guid: 7ea64e07e0f8d034db1b7ef53c95fb56, type: 3}
      propertyPath: matchValue
      value: 0
      objectReference: {fileID: 0}
    - target: {fileID: 899626956656310066, guid: 7ea64e07e0f8d034db1b7ef53c95fb56, type: 3}
      propertyPath: curve.m_Curve.Array.size
      value: 3
      objectReference: {fileID: 0}
    - target: {fileID: 899626956656310066, guid: 7ea64e07e0f8d034db1b7ef53c95fb56, type: 3}
      propertyPath: curve.m_Curve.Array.data[1].time
      value: 0.7892238
      objectReference: {fileID: 0}
    - target: {fileID: 899626956656310066, guid: 7ea64e07e0f8d034db1b7ef53c95fb56, type: 3}
      propertyPath: curve.m_Curve.Array.data[0].value
      value: 0
      objectReference: {fileID: 0}
    - target: {fileID: 899626956656310066, guid: 7ea64e07e0f8d034db1b7ef53c95fb56, type: 3}
      propertyPath: curve.m_Curve.Array.data[1].value
      value: 0.39378268
      objectReference: {fileID: 0}
    - target: {fileID: 899626956656310066, guid: 7ea64e07e0f8d034db1b7ef53c95fb56, type: 3}
      propertyPath: curve.m_Curve.Array.data[0].inSlope
      value: 0
      objectReference: {fileID: 0}
    - target: {fileID: 899626956656310066, guid: 7ea64e07e0f8d034db1b7ef53c95fb56, type: 3}
      propertyPath: curve.m_Curve.Array.data[1].inSlope
      value: 0.89549416
      objectReference: {fileID: 0}
    - target: {fileID: 899626956656310066, guid: 7ea64e07e0f8d034db1b7ef53c95fb56, type: 3}
      propertyPath: curve.m_Curve.Array.data[0].outSlope
      value: 0
      objectReference: {fileID: 0}
    - target: {fileID: 899626956656310066, guid: 7ea64e07e0f8d034db1b7ef53c95fb56, type: 3}
      propertyPath: curve.m_Curve.Array.data[1].inWeight
      value: 0.15000871
      objectReference: {fileID: 0}
    - target: {fileID: 899626956656310066, guid: 7ea64e07e0f8d034db1b7ef53c95fb56, type: 3}
      propertyPath: curve.m_Curve.Array.data[1].outSlope
      value: 0.89549416
      objectReference: {fileID: 0}
    - target: {fileID: 899626956656310066, guid: 7ea64e07e0f8d034db1b7ef53c95fb56, type: 3}
      propertyPath: curve.m_Curve.Array.data[0].outWeight
      value: 0
      objectReference: {fileID: 0}
    - target: {fileID: 899626956656310066, guid: 7ea64e07e0f8d034db1b7ef53c95fb56, type: 3}
      propertyPath: curve.m_Curve.Array.data[1].outWeight
      value: 0.1461902
      objectReference: {fileID: 0}
    - target: {fileID: 899626956656310066, guid: 7ea64e07e0f8d034db1b7ef53c95fb56, type: 3}
      propertyPath: curve.m_Curve.Array.data[0].tangentMode
      value: 0
      objectReference: {fileID: 0}
    - target: {fileID: 899626956656310066, guid: 7ea64e07e0f8d034db1b7ef53c95fb56, type: 3}
      propertyPath: curve.m_Curve.Array.data[1].tangentMode
      value: 0
      objectReference: {fileID: 0}
    - target: {fileID: 2724988094936820283, guid: 7ea64e07e0f8d034db1b7ef53c95fb56, type: 3}
      propertyPath: m_Name
      value: Blue
      objectReference: {fileID: 0}
    - target: {fileID: 6751059533620429557, guid: 7ea64e07e0f8d034db1b7ef53c95fb56, type: 3}
      propertyPath: m_Color.b
      value: 0.8627451
      objectReference: {fileID: 0}
    - target: {fileID: 6751059533620429557, guid: 7ea64e07e0f8d034db1b7ef53c95fb56, type: 3}
      propertyPath: m_Color.g
      value: 0.40784314
      objectReference: {fileID: 0}
    - target: {fileID: 6751059533620429557, guid: 7ea64e07e0f8d034db1b7ef53c95fb56, type: 3}
      propertyPath: m_Color.r
      value: 0.2
      objectReference: {fileID: 0}
    m_RemovedComponents:
    - {fileID: 7210971529783341875, guid: 7ea64e07e0f8d034db1b7ef53c95fb56, type: 3}
    - {fileID: -9212325017996178076, guid: 7ea64e07e0f8d034db1b7ef53c95fb56, type: 3}
  m_SourcePrefab: {fileID: 100100000, guid: 7ea64e07e0f8d034db1b7ef53c95fb56, type: 3}
