%YAML 1.1
%TAG !u! tag:unity3d.com,2011:
--- !u!1001 &493562108824190683
PrefabInstance:
  m_ObjectHideFlags: 0
  serializedVersion: 2
  m_Modification:
    m_TransformParent: {fileID: 0}
    m_Modifications:
    - target: {fileID: 275709119147020736, guid: c3934d46b43f2b74497efb3cd27dc180, type: 3}
      propertyPath: m_RootOrder
      value: 0
      objectReference: {fileID: 0}
    - target: {fileID: 275709119147020736, guid: c3934d46b43f2b74497efb3cd27dc180, type: 3}
      propertyPath: m_LocalPosition.x
      value: 0
      objectReference: {fileID: 0}
    - target: {fileID: 275709119147020736, guid: c3934d46b43f2b74497efb3cd27dc180, type: 3}
      propertyPath: m_LocalPosition.y
      value: 0
      objectReference: {fileID: 0}
    - target: {fileID: 275709119147020736, guid: c3934d46b43f2b74497efb3cd27dc180, type: 3}
      propertyPath: m_LocalPosition.z
      value: 0
      objectReference: {fileID: 0}
    - target: {fileID: 275709119147020736, guid: c3934d46b43f2b74497efb3cd27dc180, type: 3}
      propertyPath: m_LocalRotation.w
      value: 1
      objectReference: {fileID: 0}
    - target: {fileID: 275709119147020736, guid: c3934d46b43f2b74497efb3cd27dc180, type: 3}
      propertyPath: m_LocalRotation.x
      value: 0
      objectReference: {fileID: 0}
    - target: {fileID: 275709119147020736, guid: c3934d46b43f2b74497efb3cd27dc180, type: 3}
      propertyPath: m_LocalRotation.y
      value: 0
      objectReference: {fileID: 0}
    - target: {fileID: 275709119147020736, guid: c3934d46b43f2b74497efb3cd27dc180, type: 3}
      propertyPath: m_LocalRotation.z
      value: 0
      objectReference: {fileID: 0}
    - target: {fileID: 275709119147020736, guid: c3934d46b43f2b74497efb3cd27dc180, type: 3}
      propertyPath: m_LocalEulerAnglesHint.x
      value: 0
      objectReference: {fileID: 0}
    - target: {fileID: 275709119147020736, guid: c3934d46b43f2b74497efb3cd27dc180, type: 3}
      propertyPath: m_LocalEulerAnglesHint.y
      value: 0
      objectReference: {fileID: 0}
    - target: {fileID: 275709119147020736, guid: c3934d46b43f2b74497efb3cd27dc180, type: 3}
      propertyPath: m_LocalEulerAnglesHint.z
      value: 0
      objectReference: {fileID: 0}
    - target: {fileID: 767126978428111337, guid: c3934d46b43f2b74497efb3cd27dc180, type: 3}
      propertyPath: matchValue
      value: 3
      objectReference: {fileID: 0}
    - target: {fileID: 767126978428111337, guid: c3934d46b43f2b74497efb3cd27dc180, type: 3}
      propertyPath: interpolation
      value: 1
      objectReference: {fileID: 0}
    - target: {fileID: 2524379893478610144, guid: c3934d46b43f2b74497efb3cd27dc180, type: 3}
      propertyPath: m_Name
      value: Pink
      objectReference: {fileID: 0}
    - target: {fileID: 6587052116047248430, guid: c3934d46b43f2b74497efb3cd27dc180, type: 3}
      propertyPath: m_Color.b
      value: 0.4117647
      objectReference: {fileID: 0}
    - target: {fileID: 6587052116047248430, guid: c3934d46b43f2b74497efb3cd27dc180, type: 3}
      propertyPath: m_Color.g
      value: 0.30980393
      objectReference: {fileID: 0}
    - target: {fileID: 6587052116047248430, guid: c3934d46b43f2b74497efb3cd27dc180, type: 3}
      propertyPath: m_Color.r
      value: 1
      objectReference: {fileID: 0}
    m_RemovedComponents:
    - {fileID: -2104315198579012120, guid: c3934d46b43f2b74497efb3cd27dc180, type: 3}
  m_SourcePrefab: {fileID: 100100000, guid: c3934d46b43f2b74497efb3cd27dc180, type: 3}
