%YAML 1.1
%TAG !u! tag:unity3d.com,2011:
--- !u!1001 &3739765824989192356
PrefabInstance:
  m_ObjectHideFlags: 0
  serializedVersion: 2
  m_Modification:
    m_TransformParent: {fileID: 0}
    m_Modifications:
    - target: {fileID: 1219973122217620548, guid: c4f6dbb9e3a37b34cb0bd975282ee071, type: 3}
      propertyPath: m_Name
      value: Red
      objectReference: {fileID: 0}
    - target: {fileID: 3473914476396835172, guid: c4f6dbb9e3a37b34cb0bd975282ee071, type: 3}
      propertyPath: m_RootOrder
      value: 0
      objectReference: {fileID: 0}
    - target: {fileID: 3473914476396835172, guid: c4f6dbb9e3a37b34cb0bd975282ee071, type: 3}
      propertyPath: m_LocalPosition.x
      value: 0
      objectReference: {fileID: 0}
    - target: {fileID: 3473914476396835172, guid: c4f6dbb9e3a37b34cb0bd975282ee071, type: 3}
      propertyPath: m_LocalPosition.y
      value: 0
      objectReference: {fileID: 0}
    - target: {fileID: 3473914476396835172, guid: c4f6dbb9e3a37b34cb0bd975282ee071, type: 3}
      propertyPath: m_LocalPosition.z
      value: 0
      objectReference: {fileID: 0}
    - target: {fileID: 3473914476396835172, guid: c4f6dbb9e3a37b34cb0bd975282ee071, type: 3}
      propertyPath: m_LocalRotation.w
      value: 1
      objectReference: {fileID: 0}
    - target: {fileID: 3473914476396835172, guid: c4f6dbb9e3a37b34cb0bd975282ee071, type: 3}
      propertyPath: m_LocalRotation.x
      value: 0
      objectReference: {fileID: 0}
    - target: {fileID: 3473914476396835172, guid: c4f6dbb9e3a37b34cb0bd975282ee071, type: 3}
      propertyPath: m_LocalRotation.y
      value: 0
      objectReference: {fileID: 0}
    - target: {fileID: 3473914476396835172, guid: c4f6dbb9e3a37b34cb0bd975282ee071, type: 3}
      propertyPath: m_LocalRotation.z
      value: 0
      objectReference: {fileID: 0}
    - target: {fileID: 3473914476396835172, guid: c4f6dbb9e3a37b34cb0bd975282ee071, type: 3}
      propertyPath: m_LocalEulerAnglesHint.x
      value: 0
      objectReference: {fileID: 0}
    - target: {fileID: 3473914476396835172, guid: c4f6dbb9e3a37b34cb0bd975282ee071, type: 3}
      propertyPath: m_LocalEulerAnglesHint.y
      value: 0
      objectReference: {fileID: 0}
    - target: {fileID: 3473914476396835172, guid: c4f6dbb9e3a37b34cb0bd975282ee071, type: 3}
      propertyPath: m_LocalEulerAnglesHint.z
      value: 0
      objectReference: {fileID: 0}
    - target: {fileID: 4126195387930503501, guid: c4f6dbb9e3a37b34cb0bd975282ee071, type: 3}
      propertyPath: matchValue
      value: 5
      objectReference: {fileID: 0}
    - target: {fileID: 4126195387930503501, guid: c4f6dbb9e3a37b34cb0bd975282ee071, type: 3}
      propertyPath: interpolation
      value: 1
      objectReference: {fileID: 0}
    - target: {fileID: 4126195387930503501, guid: c4f6dbb9e3a37b34cb0bd975282ee071, type: 3}
      propertyPath: tipoDeInterpolacion
      value: 1
      objectReference: {fileID: 0}
    - target: {fileID: 4126195387930503501, guid: c4f6dbb9e3a37b34cb0bd975282ee071, type: 3}
      propertyPath: curve.m_Curve.Array.size
      value: 3
      objectReference: {fileID: 0}
    - target: {fileID: 4126195387930503501, guid: c4f6dbb9e3a37b34cb0bd975282ee071, type: 3}
      propertyPath: curve.m_Curve.Array.data[1].time
      value: 0.7892238
      objectReference: {fileID: 0}
    - target: {fileID: 4126195387930503501, guid: c4f6dbb9e3a37b34cb0bd975282ee071, type: 3}
      propertyPath: curve.m_Curve.Array.data[2].time
      value: 1
      objectReference: {fileID: 0}
    - target: {fileID: 4126195387930503501, guid: c4f6dbb9e3a37b34cb0bd975282ee071, type: 3}
      propertyPath: curve.m_Curve.Array.data[1].value
      value: 0.39378268
      objectReference: {fileID: 0}
    - target: {fileID: 4126195387930503501, guid: c4f6dbb9e3a37b34cb0bd975282ee071, type: 3}
      propertyPath: curve.m_Curve.Array.data[2].value
      value: 1
      objectReference: {fileID: 0}
    - target: {fileID: 4126195387930503501, guid: c4f6dbb9e3a37b34cb0bd975282ee071, type: 3}
      propertyPath: curve.m_Curve.Array.data[0].inSlope
      value: 0
      objectReference: {fileID: 0}
    - target: {fileID: 4126195387930503501, guid: c4f6dbb9e3a37b34cb0bd975282ee071, type: 3}
      propertyPath: curve.m_Curve.Array.data[1].inSlope
      value: 0.89549416
      objectReference: {fileID: 0}
    - target: {fileID: 4126195387930503501, guid: c4f6dbb9e3a37b34cb0bd975282ee071, type: 3}
      propertyPath: curve.m_Curve.Array.data[2].inSlope
      value: 0
      objectReference: {fileID: 0}
    - target: {fileID: 4126195387930503501, guid: c4f6dbb9e3a37b34cb0bd975282ee071, type: 3}
      propertyPath: curve.m_Curve.Array.data[0].outSlope
      value: 0
      objectReference: {fileID: 0}
    - target: {fileID: 4126195387930503501, guid: c4f6dbb9e3a37b34cb0bd975282ee071, type: 3}
      propertyPath: curve.m_Curve.Array.data[1].inWeight
      value: 0.15000871
      objectReference: {fileID: 0}
    - target: {fileID: 4126195387930503501, guid: c4f6dbb9e3a37b34cb0bd975282ee071, type: 3}
      propertyPath: curve.m_Curve.Array.data[1].outSlope
      value: 0.89549416
      objectReference: {fileID: 0}
    - target: {fileID: 4126195387930503501, guid: c4f6dbb9e3a37b34cb0bd975282ee071, type: 3}
      propertyPath: curve.m_Curve.Array.data[2].inWeight
      value: 0
      objectReference: {fileID: 0}
    - target: {fileID: 4126195387930503501, guid: c4f6dbb9e3a37b34cb0bd975282ee071, type: 3}
      propertyPath: curve.m_Curve.Array.data[2].outSlope
      value: 0
      objectReference: {fileID: 0}
    - target: {fileID: 4126195387930503501, guid: c4f6dbb9e3a37b34cb0bd975282ee071, type: 3}
      propertyPath: curve.m_Curve.Array.data[0].outWeight
      value: 0
      objectReference: {fileID: 0}
    - target: {fileID: 4126195387930503501, guid: c4f6dbb9e3a37b34cb0bd975282ee071, type: 3}
      propertyPath: curve.m_Curve.Array.data[1].outWeight
      value: 0.1461902
      objectReference: {fileID: 0}
    - target: {fileID: 4126195387930503501, guid: c4f6dbb9e3a37b34cb0bd975282ee071, type: 3}
      propertyPath: curve.m_Curve.Array.data[0].tangentMode
      value: 0
      objectReference: {fileID: 0}
    - target: {fileID: 4126195387930503501, guid: c4f6dbb9e3a37b34cb0bd975282ee071, type: 3}
      propertyPath: curve.m_Curve.Array.data[1].tangentMode
      value: 0
      objectReference: {fileID: 0}
    - target: {fileID: 4126195387930503501, guid: c4f6dbb9e3a37b34cb0bd975282ee071, type: 3}
      propertyPath: curve.m_Curve.Array.data[2].tangentMode
      value: 0
      objectReference: {fileID: 0}
    - target: {fileID: 7534444986639277194, guid: c4f6dbb9e3a37b34cb0bd975282ee071, type: 3}
      propertyPath: m_Color.b
      value: 0.39607844
      objectReference: {fileID: 0}
    - target: {fileID: 7534444986639277194, guid: c4f6dbb9e3a37b34cb0bd975282ee071, type: 3}
      propertyPath: m_Color.g
      value: 0.12156863
      objectReference: {fileID: 0}
    - target: {fileID: 7534444986639277194, guid: c4f6dbb9e3a37b34cb0bd975282ee071, type: 3}
      propertyPath: m_Color.r
      value: 0.67058825
      objectReference: {fileID: 0}
    m_RemovedComponents: []
  m_SourcePrefab: {fileID: 100100000, guid: c4f6dbb9e3a37b34cb0bd975282ee071, type: 3}
